Are we more civilized today?
…
# YOUR CODE HERE:
read_csv2("data/kingsEstrid.csv")

## ℹ Using "','" as decimal and "'.'" as grouping mark. Use `read_delim()` for more control.

## Rows: 54 Columns: 6
## ── Column specification ────────────────────────────────────────────────────────
## Delimiter: ";"
## chr (1): Navn
## dbl (5): Foedselsaar, Doedsaar, DanskKongeFra, DanskKongeTil, Regeringstid
## 
## ℹ Use `spec()` to retrieve the full column specification for this data.
## ℹ Specify the column types or set `show_col_types = FALSE` to quiet this message.

## # A tibble: 54 × 6
##    Navn           Foedselsaar Doedsaar DanskKongeFra DanskKongeTil Regeringstid
##    <chr>                <dbl>    <dbl>         <dbl>         <dbl>        <dbl>
##  1 GormDenGamle            NA      958            NA           958           NA
##  2 HaraldBlaatand          NA      986           958           986           28
##  3 SvendTveskaeg           NA       NA           986          1014           28
##  4 Harald2                 NA     1018          1014          1018            4
##  5 KnudDenStore           995     1035          1018          1035           17
##  6 Hardeknud             1020     1042          1035          1042            7
##  7 MagnusDenGode         1024     1047          1042          1047            5
##  8 SvendEstridsen        1020     1076          1047          1074           27
##  9 HaraldHen             1040     1080          1074          1080            6
## 10 KnudDenHellige        1042     1086          1080          1086            6
## # ℹ 44 more rows
…
